<svg width="3.799" height="3.799" xmlns="http://www.w3.org/2000/svg">
 <!-- Created with Method Draw - http://github.com/duopixel/Method-Draw/ -->

 <g>
  <title>Layer 1</title>
  <ellipse stroke="#0f0f00" stroke-opacity="0" ry="1.857794" rx="1.857794" id="svg_4" cy="1.880741" cx="1.926613" stroke-width="1.5" fill="#FF7a00"/>
 </g>
</svg>